{
  "status": "ok",
  "total_hits": 10000,
  "page": 1,
  "total_pages": 1000,
  "page_size": 10,
  "articles": [
    {
      "title": "Gorman-Rupp reports year-over-year double-digit organic revenue",
      "author": "The Gorman-Rupp Company",
      "published_date": "2022-07-29 17:15:00",
      "published_date_precision": "timezone unknown",
      "link": "https://www.richlandsource.com/business/gorman-rupp-reports-year-over-year-double-digit-organic-revenue/article_7a788ef6-0f52-11ed-9724-ef121b909c79.html",
      "clean_url": "richlandsource.com",
      "excerpt": "MANSFIELD -- The Board of Directors of The Gorman-Rupp Company (NYSE: GRC) has declared a quarterly cash dividend of $0.17 per share on the common stock of the Company, payable",
      "summary": "Country\n\nUnited States of America US Virgin Islands United States Minor Outlying Islands Canada Mexico, United Mexican States Bahamas, Commonwealth of the Cuba, Republic of Dominican Republic Haiti, Republic of Jamaica Afghanistan Albania, People's Socialist Republic of Algeria, People's Democratic Republic of American Samoa Andorra, Principality of Angola, Republic of Anguilla Antarctica (the territory South of 60 deg S) Antigua and Barbuda Argentina, Argentine Republic Armenia Aruba Australia,",
      "rights": "richlandsource.com",
      "rank": 39540,
      "topic": "business",
      "country": "US",
      "language": "en",
      "authors": "From The Gorman-Rupp Company,The Gorman-Rupp Company",
      "media": "https://bloximages.newyork1.vip.townnews.com/richlandsource.com/content/tncms/assets/v3/editorial/e/e7/ee769074-f717-11e9-84cb-1f09f92d598f/5db2d864eb42c.image.jpg?crop=267%2C267%2C66%2C0&resize=200%2C200&order=crop%2Cresize",
      "is_opinion": false,
      "twitter_account": "@richlandsource",
      "_score": null,
      "_id": "5ed88dd2902d94382275e645f2b50956"
    },
    {
      "title": "Inflation hits record 8.9% in euro area, but economy grows",
      "author": "Jerry Prickett",
      "published_date": "2022-07-29 17:15:00",
      "published_date_precision": "timezone unknown",
      "link": "https://www.tdtnews.com/news/business/article_24cd76be-0f3f-11ed-a526-3f99d24ba999.html",
      "clean_url": "tdtnews.com",
      "excerpt": "By COURTNEY BONNELL and COLLEEN BARRY AP Business Writers",
      "summary": "Close Get email notifications on {{subject}} daily!\n\nYour notification has been saved.\n\nThere was a problem saving your notification.\n\n{{description}}\n\nEmail notifications are only sent once a day, and only if there are new matching items.",
      "rights": "tdtnews.com",
      "rank": 75701,
      "topic": "business",
      "country": "US",
      "language": "en",
      "authors": "Jerry Prickett",
      "media": "https://bloximages.newyork1.vip.townnews.com/tdtnews.com/content/tncms/custom/image/a8821a52-0cfe-11ed-abc9-4fab27aa9064.png?resize=600%2C600",
      "is_opinion": false,
      "twitter_account": "@tdtnews",
      "_score": null,
      "_id": "529c0f012487ba7d15479f06192b9221"
    },
    {
      "title": "Table Stakes: Poynter's Local News Innovation Program (2023)",
      "author": "",
      "published_date": "2022-07-29 17:15:00",
      "published_date_precision": "timezone unknown",
      "link": "https://www.poynter.org/shop/business-work/table-stakes-poynters-local-news-innovation-program-2023/",
      "clean_url": "poynter.org",
      "excerpt": "Transition to sustainable digital publishing and build a culture of performance-driven change. Apply for the yearlong program by Nov. 18, 2022.",
      "summary": "Online, St. Petersburg, Fla. This intensive, yearlong program is proven to help local newspapers, public radio stations and digital news organizations make the transition to sustainable digital publishing and build a culture of performance-driven change.\nThis yearlong training costs $500-$6,500, depending on the size of your news organization.Attend monthly webinars, participate in coaching and peer group calls, and attend two in-person summits.Collect data and measure outcomes to track progress toward achieving your objectives.",
      "rights": "poynter.org",
      "rank": 2655,
      "topic": "business",
      "country": "US",
      "language": "en",
      "authors": "",
      "media": "https://www.poynter.org/wp-content/uploads/2022/07/Tablestakes-July-2022-FINAL.png",
      "is_opinion": false,
      "twitter_account": "@Poynter",
      "_score": null,
      "_id": "495f4aa91568905a3b24bd7235c59472"
    },
    {
      "title": "Unilock To Invest Over $55M In Advanced Manufacturing Campus",
      "author": "BF Staff",
      "published_date": "2022-07-29 17:15:00",
      "published_date_precision": "timezone unknown",
      "link": "https://businessfacilities.com/2022/07/unilock-invest-advanced-manufacturing-campus-virginia/",
      "clean_url": "businessfacilities.com",
      "excerpt": "Unilock will invest $55.6 million to establish a new advanced manufacturing campus in Virginia. The hardscape manufacturer will locate up to four new production facilities in Doswell to meet increased\u2026",
      "summary": "Unilock will invest $55.6 million to establish a new advanced manufacturing campus in Virginia. The hardscape manufacturer will locate up to four new production facilities in Doswell to meet increased customer demand from mid-Atlantic and Southeast markets. Unilock distributes its paving stone and retaining wall products across Canada and to 30 U.S. states from 13 manufacturing sites in Ontario, Wisconsin, Illinois, Kansas, Michigan, Ohio, New York and Massachusetts.The Toronto, Canada-based company also considered Georgia and Maryland before choosing Virginia for the project, which will create 50 new jobs in Hanover County.",
      "rights": "businessfacilities.com",
      "rank": 77344,
      "topic": "business",
      "country": "US",
      "language": "en",
      "authors": "BF Staff",
      "media": "https://businessfacilities.com/wp-content/uploads/2022/07/Unilock-571x300.jpg",
      "is_opinion": false,
      "twitter_account": "@bizfacilities",
      "_score": null,
      "_id": "415f4e7a717153e16f2dc33cc1ae9809"
    },
    {
      "title": "Westinghouse: Canadian company among 11 seeking demolition contract",
      "author": "Carl Hunnell",
      "published_date": "2022-07-29 17:15:00",
      "published_date_precision": "timezone unknown",
      "link": "https://www.richlandsource.com/business/community_development/westinghouse-canadian-company-among-11-seeking-demolition-contract/article_67144d66-0f41-11ed-955f-073a235dbc3a.html",
      "clean_url": "richlandsource.com",
      "excerpt": "The Westinghouse demolition and remediation project has gained international attention.",
      "summary": "",
      "rights": "richlandsource.com",
      "rank": 39540,
      "topic": "business",
      "country": "US",
      "language": "en",
      "authors": "Carl Hunnell,City Editor",
      "media": "https://bloximages.newyork1.vip.townnews.com/richlandsource.com/content/tncms/assets/v3/editorial/9/de/9de334d6-0219-11ed-aa28-af482ae9bcde/62cdccb8737bb.image.jpg?crop=1761%2C925%2C0%2C126&resize=1200%2C630&order=crop%2Cresize",
      "is_opinion": false,
      "twitter_account": "@richlandsource",
      "_score": null,
      "_id": "ecd5cc39ed83a2ba9e1124acfd8a52dd"
    },
    {
      "title": "4 expensive problems you're sure to miss if you waive your home inspection, according to realtors",
      "author": "Jen Glantz",
      "published_date": "2022-07-29 17:01:16",
      "published_date_precision": "full",
      "link": "https://www.businessinsider.com/personal-finance/expensive-problems-home-inspection-2022-7",
      "clean_url": "businessinsider.com",
      "excerpt": "Outdated septic systems, mold in the crawlspace, and structural problems are just some of the issues that a home inspector can find.",
      "summary": "Over the last few months, almost a dozen of my friends have decided to say goodbye to renting and become first-time homeowners. As someone who doesn't plan on following in their footsteps anytime soon (I enjoy the flexibility of renting too much), it's been interesting to live vicariously through them as they search for the homes of their dreams.Realtor.com expects home sales to grow 6.6% this year, and forecasts not only continued limited inventory but prices rising by 2.9%. Depending on where you're trying to buy a home, it can feel competitive, and if you don't put in an offer fast enough, you might not even stand a chance.",
      "rights": "Insider",
      "rank": 106,
      "topic": "business",
      "country": "US",
      "language": "en",
      "authors": "Jen Glantz,Read Less,Read More",
      "media": "https://i.insider.com/62e3fb6265642200187247f3?width=1200&format=jpeg",
      "is_opinion": false,
      "twitter_account": "@BI_Strategy",
      "_score": null,
      "_id": "50ea307be1eca57239d592e79b631e76"
    },
    {
      "title": "$2,245.62 a second: Enormous profit for oil companies on record gas prices",
      "author": "Chris Isidore",
      "published_date": "2022-07-29 17:00:00",
      "published_date_precision": "timezone unknown",
      "link": "https://siouxcityjournal.com/business/2-245-62-a-second-enormous-profit-for-oil-companies-on-record-gas-prices/article_8f2e9847-d57f-5150-b45b-f38ff9296a02.html",
      "clean_url": "siouxcityjournal.com",
      "excerpt": "Oil companies swam in record profits over the last few months at a time when Americans struggled to pay for gasoline, food and other basic necessities.",
      "summary": "An Exxon Mobil gas station in Big Spring, Texas, is seen here on June 21. ExxonMobil and Chevron both reported massive profit jumps thanks to record gasoline prices during the quarter. Matthew Busch/Bloomberg/Getty Images By Chris Isidore, CNN Business ExxonMobil and Chevron both reported record massive profits thanks to record gasoline prices during the quarter.\u00a0Exxon's profit, excluding special items, came to $17.6 billion in the second quarter, nearly double what it made in its very profitable first quarter as oil and gas prices started to soar in the wake of Russia's invasion of Ukraine.",
      "rights": "siouxcityjournal.com",
      "rank": 9791,
      "topic": "business",
      "country": "US",
      "language": "en",
      "authors": "Ap Energy Writer,CNN Business,Cathy Bussewitz,Chris Isidore,Fpg,Reg Speller",
      "media": "https://bloximages.chicago2.vip.townnews.com/siouxcityjournal.com/content/tncms/assets/v3/editorial/8/f2/8f2e9847-d57f-5150-b45b-f38ff9296a02/62e3e777be949.preview.jpg?crop=1920%2C1008%2C0%2C35&resize=1200%2C630&order=crop%2Cresize",
      "is_opinion": false,
      "twitter_account": "@scj",
      "_score": null,
      "_id": "ce4906bdf0660741cf1d07fa24bec0e9"
    },
    {
      "title": "Trader Joe's Workers in Massachusetts Organize Grocery Chain's First-Ever Union",
      "author": "Democracy Now",
      "published_date": "2022-07-29 17:00:00",
      "published_date_precision": "timezone unknown",
      "link": "https://www.democracynow.org/2022/7/29/headlines/trader_joes_workers_in_massachusetts_organize_grocery_chains_first_ever_union",
      "clean_url": "democracynow.org",
      "excerpt": "In Massachusetts, workers at a Trader Joe's outlet in the town of Hadley have become the first to organize a union at the grocery chain. Workers voted 45 to 31 to join the newly formed Trader Joe's\u2026",
      "summary": "DonateWe rely on contributions from our viewers and listeners to do our work.Please do your part today.Make a donationTopDemocracy Now! is a 501(c)3 non-profit news organization. We do not accept funding from advertising, underwriting or government agencies. We rely on contributions from our viewers and listeners to do our work. Please do your part today.Make a donation",
      "rights": "democracynow.org",
      "rank": 2660,
      "topic": "business",
      "country": "US",
      "language": "en",
      "authors": "Democracy Now",
      "media": "https://www.democracynow.org/images/headlines/06/63806/full_hd/h11-trader-joes-massachusetts-union.jpg",
      "is_opinion": false,
      "twitter_account": "@democracynow",
      "_score": null,
      "_id": "3d26614b3e56d1c65aa41464be6461fe"
    },
    {
      "title": "Trade Breakdown: Rudy Gobert To Timberwolves",
      "author": "",
      "published_date": "2022-07-29 17:00:00",
      "published_date_precision": "timezone unknown",
      "link": "https://www.hoopsrumors.com/2022/07/trade-breakdown-rudy-gobert-to-timberwolves.html",
      "clean_url": "hoopsrumors.com",
      "excerpt": "This is the ninth installment in our series breaking down the major trades of the 2022 NBA offseason.",
      "summary": "This is the ninth installment in our series breaking down the major trades of the 2022 offseason. As opposed to giving out grades, this series will explore why the teams were motivated to make the moves. Let's dive into the biggest deal of the summer so far, a transaction that saw a four-time All-NBA center head from the Jazz to the Timberwolves\u2026 The day after free agency opened, the Jazz agreed to send Rudy Gobert to the Timberwolves in exchange for Malik Beasley, Patrick Beverley, Jarred Vanderbilt, Leandro Bolmaro, the draft rights to Walker Kessler (No.",
      "rights": "hoopsrumors.com",
      "rank": 33074,
      "topic": "business",
      "country": "US",
      "language": "en",
      "authors": "",
      "media": "https://cdn.hoopsrumors.com/files/2022/06/Rudy-Gobert-900x600.jpg",
      "is_opinion": false,
      "twitter_account": null,
      "_score": null,
      "_id": "6974ed03c86bbb9070a5cab61a7a1669"
    },
    {
      "title": "Mexico's economy grows by 1% in 2nd quarter",
      "author": "",
      "published_date": "2022-07-29 16:55:14",
      "published_date_precision": "full",
      "link": "https://wnyt.com/business-news/mexicos-economy-grows-by-1-in-2nd-quarter/",
      "clean_url": "wnyt.com",
      "excerpt": "Mexico's economy grew by 1% in the second quarter. Mexico's national statistics agency said Friday that growth for the first half of 2022 now amounts to 1.9%, after an expansion of 0.9% in the first\u2026",
      "summary": "MEXICO CITY (AP) \u2014 Mexico's economy grew by 1% in the second quarter, Mexico's national statistics agency said Friday.Economic growth for the first half of 2022 now amounts to 1.9%,after an expansion of 0.9% in the first three months of the year. The economy recovered by 5% in 2021 following a steep drop during the coronavirus pandemic. But growth is expected to slow amid high interest rates and an economic downturn in the United States, by far Mexico's largest trading partner. Mexico's central bank has raised domestic interest rates to 7.",
      "rights": "wnyt.com",
      "rank": 21604,
      "topic": "business",
      "country": "US",
      "language": "en",
      "authors": "",
      "media": "http://static.mobilelocalnews.com/images/app_1367/branding/1367_icon_1024.png",
      "is_opinion": false,
      "twitter_account": "@WNYT",
      "_score": null,
      "_id": "46634210b3d1ca2ba28dcb198cf7ff61"
    }
  ],
  "user_input": {
    "lang": null,
    "not_lang": null,
    "countries": ["US"],
    "not_countries": null,
    "page": 1,
    "size": 10,
    "sources": null,
    "not_sources": null,
    "topic": "business",
    "from": "2022-07-15 17:16:17"
  }
}
